{
 "add_total_row": 0,
 "columns": [],
 "creation": "2021-12-13 13:31:29.251642",
 "disable_prepared_report": 0,
 "disabled": 0,
 "docstatus": 0,
 "doctype": "Report",
 "filters": [],
 "idx": 0,
 "is_standard": "Yes",
 "modified": "2021-12-13 13:31:29.251642",
 "modified_by": "Administrator",
 "module": "Capacity Planning",
 "name": "Raw Material Planning",
 "owner": "Administrator",
 "prepared_report": 0,
 "ref_doctype": "Purchase Order Item",
 "report_name": "Raw Material Planning",
 "report_type": "Script Report",
 "roles": []
}